results/Journal_paper_2017/Power_Results/baseline/R5_ALLOCATIOR_vcd.vcd
$date
	Wed Jun 28 12:47:11 2017
$end
$version
	QuestaSim Version 10.4c_1
$end
$timescale
	1ps
$end

$scope module tb_network_4x4 $end

$scope module NoC $end

$scope module R_5 $end

$scope module allocator_unit $end
$var wire 1 ! reset $end
$var wire 1 " clk $end
$var wire 1 # credit_in_N $end
$var wire 1 $ credit_in_E $end
$var wire 1 % credit_in_W $end
$var wire 1 & credit_in_S $end
$var wire 1 ' credit_in_L $end
$var wire 1 ( req_N_N $end
$var wire 1 ) req_N_E $end
$var wire 1 * req_N_W $end
$var wire 1 + req_N_S $end
$var wire 1 , req_N_L $end
$var wire 1 - req_E_N $end
$var wire 1 . req_E_E $end
$var wire 1 / req_E_W $end
$var wire 1 0 req_E_S $end
$var wire 1 1 req_E_L $end
$var wire 1 2 req_W_N $end
$var wire 1 3 req_W_E $end
$var wire 1 4 req_W_W $end
$var wire 1 5 req_W_S $end
$var wire 1 6 req_W_L $end
$var wire 1 7 req_S_N $end
$var wire 1 8 req_S_E $end
$var wire 1 9 req_S_W $end
$var wire 1 : req_S_S $end
$var wire 1 ; req_S_L $end
$var wire 1 < req_L_N $end
$var wire 1 = req_L_E $end
$var wire 1 > req_L_W $end
$var wire 1 ? req_L_S $end
$var wire 1 @ req_L_L $end
$var wire 1 A empty_N $end
$var wire 1 B empty_E $end
$var wire 1 C empty_W $end
$var wire 1 D empty_S $end
$var wire 1 E empty_L $end
$var wire 1 F valid_N $end
$var wire 1 G valid_E $end
$var wire 1 H valid_W $end
$var wire 1 I valid_S $end
$var wire 1 J valid_L $end
$var wire 1 K grant_N_N $end
$var wire 1 L grant_N_E $end
$var wire 1 M grant_N_W $end
$var wire 1 N grant_N_S $end
$var wire 1 O grant_N_L $end
$var wire 1 P grant_E_N $end
$var wire 1 Q grant_E_E $end
$var wire 1 R grant_E_W $end
$var wire 1 S grant_E_S $end
$var wire 1 T grant_E_L $end
$var wire 1 U grant_W_N $end
$var wire 1 V grant_W_E $end
$var wire 1 W grant_W_W $end
$var wire 1 X grant_W_S $end
$var wire 1 Y grant_W_L $end
$var wire 1 Z grant_S_N $end
$var wire 1 [ grant_S_E $end
$var wire 1 \ grant_S_W $end
$var wire 1 ] grant_S_S $end
$var wire 1 ^ grant_S_L $end
$var wire 1 _ grant_L_N $end
$var wire 1 ` grant_L_E $end
$var wire 1 a grant_L_W $end
$var wire 1 b grant_L_S $end
$var wire 1 c grant_L_L $end
$var wire 1 d credit_counter_N_in [1] $end
$var wire 1 e credit_counter_N_in [0] $end
$var wire 1 f credit_counter_N_out [1] $end
$var wire 1 g credit_counter_N_out [0] $end
$var wire 1 h credit_counter_E_in [1] $end
$var wire 1 i credit_counter_E_in [0] $end
$var wire 1 j credit_counter_E_out [1] $end
$var wire 1 k credit_counter_E_out [0] $end
$var wire 1 l credit_counter_W_in [1] $end
$var wire 1 m credit_counter_W_in [0] $end
$var wire 1 n credit_counter_W_out [1] $end
$var wire 1 o credit_counter_W_out [0] $end
$var wire 1 p credit_counter_S_in [1] $end
$var wire 1 q credit_counter_S_in [0] $end
$var wire 1 r credit_counter_S_out [1] $end
$var wire 1 s credit_counter_S_out [0] $end
$var wire 1 t credit_counter_L_in [1] $end
$var wire 1 u credit_counter_L_in [0] $end
$var wire 1 v credit_counter_L_out [1] $end
$var wire 1 w credit_counter_L_out [0] $end
$var wire 1 x grant_N $end
$var wire 1 y grant_E $end
$var wire 1 z grant_W $end
$var wire 1 { grant_S $end
$var wire 1 | grant_L $end
$var wire 1 } X_N_N $end
$var wire 1 ~ X_N_E $end
$var wire 1 !! X_N_W $end
$var wire 1 "! X_N_S $end
$var wire 1 #! X_N_L $end
$var wire 1 $! X_E_N $end
$var wire 1 %! X_E_E $end
$var wire 1 &! X_E_W $end
$var wire 1 '! X_E_S $end
$var wire 1 (! X_E_L $end
$var wire 1 )! X_W_N $end
$var wire 1 *! X_W_E $end
$var wire 1 +! X_W_W $end
$var wire 1 ,! X_W_S $end
$var wire 1 -! X_W_L $end
$var wire 1 .! X_S_N $end
$var wire 1 /! X_S_E $end
$var wire 1 0! X_S_W $end
$var wire 1 1! X_S_S $end
$var wire 1 2! X_S_L $end
$var wire 1 3! X_L_N $end
$var wire 1 4! X_L_E $end
$var wire 1 5! X_L_W $end
$var wire 1 6! X_L_S $end
$var wire 1 7! X_L_L $end
$var wire 1 8! grant_N_N_sig $end
$var wire 1 9! grant_N_E_sig $end
$var wire 1 :! grant_N_W_sig $end
$var wire 1 ;! grant_N_S_sig $end
$var wire 1 <! grant_N_L_sig $end
$var wire 1 =! grant_E_N_sig $end
$var wire 1 >! grant_E_E_sig $end
$var wire 1 ?! grant_E_W_sig $end
$var wire 1 @! grant_E_S_sig $end
$var wire 1 A! grant_E_L_sig $end
$var wire 1 B! grant_W_N_sig $end
$var wire 1 C! grant_W_E_sig $end
$var wire 1 D! grant_W_W_sig $end
$var wire 1 E! grant_W_S_sig $end
$var wire 1 F! grant_W_L_sig $end
$var wire 1 G! grant_S_N_sig $end
$var wire 1 H! grant_S_E_sig $end
$var wire 1 I! grant_S_W_sig $end
$var wire 1 J! grant_S_S_sig $end
$var wire 1 K! grant_S_L_sig $end
$var wire 1 L! grant_L_N_sig $end
$var wire 1 M! grant_L_E_sig $end
$var wire 1 N! grant_L_W_sig $end
$var wire 1 O! grant_L_S_sig $end
$var wire 1 P! grant_L_L_sig $end
$upscope $end
$upscope $end
$upscope $end
$upscope $end
$enddefinitions $end
#0
$dumpvars
1d
1e
1f
1g
1h
1i
1j
1k
1l
1m
1n
1o
1p
1q
1r
1s
1t
1u
1v
1w
0#
0$
0%
0&
0F
0G
0H
0I
1'
0J
0!
0"
0K
0L
0M
0N
0O
0P
0Q
0R
0S
0T
0U
0V
0W
0X
0Y
0Z
0[
0\
0]
0^
0_
0`
0a
0b
0c
0-
02
07
0<
0)
03
08
0=
0*
0/
09
0>
0+
00
05
0?
0,
01
06
0;
1A
1B
1C
1D
1E
0(
0.
04
0:
0@
0x
0y
0z
0{
0|
0}
0~
0!!
0"!
0#!
0$!
0%!
0&!
0'!
0(!
0)!
0*!
0+!
0,!
0-!
0.!
0/!
00!
01!
02!
03!
04!
05!
06!
07!
08!
09!
0:!
0;!
0<!
0=!
0>!
0?!
0@!
0A!
0B!
0C!
0D!
0E!
0F!
0G!
0H!
0I!
0J!
0K!
0L!
0M!
0N!
0O!
0P!
$end
#500
1"
#1000
1!
0"
#1500
1"
#2000
0"
#2500
1"
#3000
0"
#3500
1"
#4000
0"
#4500
1"
#5000
0"
#5500
1"
#6000
0"
#6500
1"
#7000
0"
#7500
1"
#8000
0"
#8500
1"
#9000
0"
#9500
1"
#10000
0"
#10500
1"
#11000
0"
#11500
1"
#12000
0"
#12500
1"
#13000
0"
#13500
1"
#14000
0"
#14500
1"
#15000
0"
#15500
1"
#16000
0"
#16500
1"
#17000
0"
#17500
1"
#18000
0"
#18500
1"
#19000
0"
#19500
1"
#20000
0"
#20500
1"
#21000
0"
#21500
1"
#22000
0"
#22500
1"
#23000
0"
#23500
1"
#24000
0"
#24500
1"
#25000
0"
#25500
1"
#26000
0"
#26500
1"
#27000
0"
#27500
1"
#28000
0"
#28500
1"
#29000
0"
#29500
1"
#30000
0"
#30500
1"
#31000
0"
#31500
1"
#32000
0"
#32500
1"
#33000
0"
#33500
1"
#34000
0"
#34500
1"
#35000
0"
#35500
1"
#36000
0"
#36500
1"
#37000
0"
#37500
1"
#38000
0"
#38500
1"
#39000
0"
#39500
1"
#40000
0"
#40500
1"
0E
#41000
0"
#41500
1"
1?
1=
14!
#42000
0"
#42500
1"
1A!
1y
1T
0i
1G
#43000
0"
#43500
1"
0k
1i
0h
#44000
0"
#44500
1"
1k
0j
0i
#45000
0"
#45500
1"
0k
0A!
0y
0T
0G
#46000
0"
#46500
1"
1$
1i
#47000
0"
#47500
1"
1k
0i
1h
1A!
1y
1T
1i
0h
1G
#48000
0"
#48500
1"
#49000
0"
#49500
1"
0$
0i
#50000
0"
#50500
1"
0k
0A!
0y
0T
0G
#51000
0"
#51500
1"
1$
1i
#52000
0"
#52500
1"
1k
0i
1h
1A!
1y
1T
1i
0h
1G
#53000
0"
#53500
1"
#54000
0"
#54500
1"
0?
0=
1E
04!
0y
0T
0A!
0i
1h
0G
#55000
0"
#55500
1"
0k
1j
1i
#56000
0"
#56500
1"
1k
0$
#57000
0"
#57500
1"
#58000
0"
#58500
1"
#59000
0"
#59500
1"
#60000
0"
#60500
1"
#61000
0"
#61500
1"
#62000
0"
#62500
1"
#63000
0"
#63500
1"
#64000
0"
#64500
1"
#65000
0"
#65500
1"
#66000
0"
#66500
1"
#67000
0"
#67500
1"
#68000
0"
#68500
1"
#69000
0"
#69500
1"
#70000
0"
#70500
1"
0E
#71000
0"
#71500
1"
1?
1=
14!
#72000
0"
#72500
1"
1A!
1y
1T
0i
1G
#73000
0"
#73500
1"
0k
1i
0h
0C
#74000
0"
#74500
1"
1k
0j
15
13
0i
1*!
#75000
0"
#75500
1"
0k
0A!
0y
0T
0D
0G
#76000
0"
#76500
1"
1;
12!
#77000
0"
#77500
1"
1O!
1|
1b
1J
#78000
0"
#78500
1"
#79000
0"
#79500
1"
#80000
0"
#80500
1"
#81000
0"
#81500
1"
#82000
0"
#82500
1"
#83000
0"
#83500
1"
#84000
0"
#84500
1"
#85000
0"
#85500
1"
0;
02!
1D
0|
0O!
0b
0J
