results/Journal_paper_2017/Power_Results/baseline/R5_LBDR_vcd.vcd
$date
	Wed Jun 28 12:47:06 2017
$end
$version
	QuestaSim Version 10.4c_1
$end
$timescale
	1ps
$end

$scope module tb_network_4x4 $end

$scope module NoC $end

$scope module R_5 $end

$scope module LBDR_L $end
$var wire 1 ! reset $end
$var wire 1 " clk $end
$var wire 1 # Rxy_reconf [7] $end
$var wire 1 $ Rxy_reconf [6] $end
$var wire 1 % Rxy_reconf [5] $end
$var wire 1 & Rxy_reconf [4] $end
$var wire 1 ' Rxy_reconf [3] $end
$var wire 1 ( Rxy_reconf [2] $end
$var wire 1 ) Rxy_reconf [1] $end
$var wire 1 * Rxy_reconf [0] $end
$var wire 1 + Reconfig $end
$var wire 1 , empty $end
$var wire 1 - flit_type [2] $end
$var wire 1 . flit_type [1] $end
$var wire 1 / flit_type [0] $end
$var wire 1 0 dst_addr [3] $end
$var wire 1 1 dst_addr [2] $end
$var wire 1 2 dst_addr [1] $end
$var wire 1 3 dst_addr [0] $end
$var wire 1 4 grant_N $end
$var wire 1 5 grant_E $end
$var wire 1 6 grant_W $end
$var wire 1 7 grant_S $end
$var wire 1 8 grant_L $end
$var wire 1 9 Req_N $end
$var wire 1 : Req_E $end
$var wire 1 ; Req_W $end
$var wire 1 < Req_S $end
$var wire 1 = Req_L $end
$var wire 1 > Cx [3] $end
$var wire 1 ? Cx [2] $end
$var wire 1 @ Cx [1] $end
$var wire 1 A Cx [0] $end
$var wire 1 B Rxy [7] $end
$var wire 1 C Rxy [6] $end
$var wire 1 D Rxy [5] $end
$var wire 1 E Rxy [4] $end
$var wire 1 F Rxy [3] $end
$var wire 1 G Rxy [2] $end
$var wire 1 H Rxy [1] $end
$var wire 1 I Rxy [0] $end
$var wire 1 J Rxy_in [7] $end
$var wire 1 K Rxy_in [6] $end
$var wire 1 L Rxy_in [5] $end
$var wire 1 M Rxy_in [4] $end
$var wire 1 N Rxy_in [3] $end
$var wire 1 O Rxy_in [2] $end
$var wire 1 P Rxy_in [1] $end
$var wire 1 Q Rxy_in [0] $end
$var wire 1 R cur_addr [3] $end
$var wire 1 S cur_addr [2] $end
$var wire 1 T cur_addr [1] $end
$var wire 1 U cur_addr [0] $end
$var wire 1 V N1 $end
$var wire 1 W E1 $end
$var wire 1 X W1 $end
$var wire 1 Y S1 $end
$var wire 1 Z Req_N_in $end
$var wire 1 [ Req_E_in $end
$var wire 1 \ Req_W_in $end
$var wire 1 ] Req_S_in $end
$var wire 1 ^ Req_L_in $end
$var wire 1 _ Req_N_FF $end
$var wire 1 ` Req_E_FF $end
$var wire 1 a Req_W_FF $end
$var wire 1 b Req_S_FF $end
$var wire 1 c Req_L_FF $end
$var wire 1 d grants $end
$var wire 1 e ReConf_FF_in $end
$var wire 1 f ReConf_FF_out $end
$upscope $end

$scope module LBDR_N $end
$var wire 1 ! reset $end
$var wire 1 " clk $end
$var wire 1 # Rxy_reconf [7] $end
$var wire 1 $ Rxy_reconf [6] $end
$var wire 1 % Rxy_reconf [5] $end
$var wire 1 & Rxy_reconf [4] $end
$var wire 1 ' Rxy_reconf [3] $end
$var wire 1 ( Rxy_reconf [2] $end
$var wire 1 ) Rxy_reconf [1] $end
$var wire 1 * Rxy_reconf [0] $end
$var wire 1 + Reconfig $end
$var wire 1 g empty $end
$var wire 1 h flit_type [2] $end
$var wire 1 i flit_type [1] $end
$var wire 1 j flit_type [0] $end
$var wire 1 k dst_addr [3] $end
$var wire 1 l dst_addr [2] $end
$var wire 1 m dst_addr [1] $end
$var wire 1 n dst_addr [0] $end
$var wire 1 o grant_N $end
$var wire 1 p grant_E $end
$var wire 1 q grant_W $end
$var wire 1 r grant_S $end
$var wire 1 s grant_L $end
$var wire 1 t Req_N $end
$var wire 1 u Req_E $end
$var wire 1 v Req_W $end
$var wire 1 w Req_S $end
$var wire 1 x Req_L $end
$var wire 1 y Cx [3] $end
$var wire 1 z Cx [2] $end
$var wire 1 { Cx [1] $end
$var wire 1 | Cx [0] $end
$var wire 1 } Rxy [7] $end
$var wire 1 ~ Rxy [6] $end
$var wire 1 !! Rxy [5] $end
$var wire 1 "! Rxy [4] $end
$var wire 1 #! Rxy [3] $end
$var wire 1 $! Rxy [2] $end
$var wire 1 %! Rxy [1] $end
$var wire 1 &! Rxy [0] $end
$var wire 1 '! Rxy_in [7] $end
$var wire 1 (! Rxy_in [6] $end
$var wire 1 )! Rxy_in [5] $end
$var wire 1 *! Rxy_in [4] $end
$var wire 1 +! Rxy_in [3] $end
$var wire 1 ,! Rxy_in [2] $end
$var wire 1 -! Rxy_in [1] $end
$var wire 1 .! Rxy_in [0] $end
$var wire 1 /! cur_addr [3] $end
$var wire 1 0! cur_addr [2] $end
$var wire 1 1! cur_addr [1] $end
$var wire 1 2! cur_addr [0] $end
$var wire 1 3! N1 $end
$var wire 1 4! E1 $end
$var wire 1 5! W1 $end
$var wire 1 6! S1 $end
$var wire 1 7! Req_N_in $end
$var wire 1 8! Req_E_in $end
$var wire 1 9! Req_W_in $end
$var wire 1 :! Req_S_in $end
$var wire 1 ;! Req_L_in $end
$var wire 1 <! Req_N_FF $end
$var wire 1 =! Req_E_FF $end
$var wire 1 >! Req_W_FF $end
$var wire 1 ?! Req_S_FF $end
$var wire 1 @! Req_L_FF $end
$var wire 1 A! grants $end
$var wire 1 B! ReConf_FF_in $end
$var wire 1 C! ReConf_FF_out $end
$upscope $end

$scope module LBDR_E $end
$var wire 1 ! reset $end
$var wire 1 " clk $end
$var wire 1 # Rxy_reconf [7] $end
$var wire 1 $ Rxy_reconf [6] $end
$var wire 1 % Rxy_reconf [5] $end
$var wire 1 & Rxy_reconf [4] $end
$var wire 1 ' Rxy_reconf [3] $end
$var wire 1 ( Rxy_reconf [2] $end
$var wire 1 ) Rxy_reconf [1] $end
$var wire 1 * Rxy_reconf [0] $end
$var wire 1 + Reconfig $end
$var wire 1 D! empty $end
$var wire 1 E! flit_type [2] $end
$var wire 1 F! flit_type [1] $end
$var wire 1 G! flit_type [0] $end
$var wire 1 H! dst_addr [3] $end
$var wire 1 I! dst_addr [2] $end
$var wire 1 J! dst_addr [1] $end
$var wire 1 K! dst_addr [0] $end
$var wire 1 L! grant_N $end
$var wire 1 M! grant_E $end
$var wire 1 N! grant_W $end
$var wire 1 O! grant_S $end
$var wire 1 P! grant_L $end
$var wire 1 Q! Req_N $end
$var wire 1 R! Req_E $end
$var wire 1 S! Req_W $end
$var wire 1 T! Req_S $end
$var wire 1 U! Req_L $end
$var wire 1 V! Cx [3] $end
$var wire 1 W! Cx [2] $end
$var wire 1 X! Cx [1] $end
$var wire 1 Y! Cx [0] $end
$var wire 1 Z! Rxy [7] $end
$var wire 1 [! Rxy [6] $end
$var wire 1 \! Rxy [5] $end
$var wire 1 ]! Rxy [4] $end
$var wire 1 ^! Rxy [3] $end
$var wire 1 _! Rxy [2] $end
$var wire 1 `! Rxy [1] $end
$var wire 1 a! Rxy [0] $end
$var wire 1 b! Rxy_in [7] $end
$var wire 1 c! Rxy_in [6] $end
$var wire 1 d! Rxy_in [5] $end
$var wire 1 e! Rxy_in [4] $end
$var wire 1 f! Rxy_in [3] $end
$var wire 1 g! Rxy_in [2] $end
$var wire 1 h! Rxy_in [1] $end
$var wire 1 i! Rxy_in [0] $end
$var wire 1 j! cur_addr [3] $end
$var wire 1 k! cur_addr [2] $end
$var wire 1 l! cur_addr [1] $end
$var wire 1 m! cur_addr [0] $end
$var wire 1 n! N1 $end
$var wire 1 o! E1 $end
$var wire 1 p! W1 $end
$var wire 1 q! S1 $end
$var wire 1 r! Req_N_in $end
$var wire 1 s! Req_E_in $end
$var wire 1 t! Req_W_in $end
$var wire 1 u! Req_S_in $end
$var wire 1 v! Req_L_in $end
$var wire 1 w! Req_N_FF $end
$var wire 1 x! Req_E_FF $end
$var wire 1 y! Req_W_FF $end
$var wire 1 z! Req_S_FF $end
$var wire 1 {! Req_L_FF $end
$var wire 1 |! grants $end
$var wire 1 }! ReConf_FF_in $end
$var wire 1 ~! ReConf_FF_out $end
$upscope $end

$scope module LBDR_W $end
$var wire 1 ! reset $end
$var wire 1 " clk $end
$var wire 1 # Rxy_reconf [7] $end
$var wire 1 $ Rxy_reconf [6] $end
$var wire 1 % Rxy_reconf [5] $end
$var wire 1 & Rxy_reconf [4] $end
$var wire 1 ' Rxy_reconf [3] $end
$var wire 1 ( Rxy_reconf [2] $end
$var wire 1 ) Rxy_reconf [1] $end
$var wire 1 * Rxy_reconf [0] $end
$var wire 1 + Reconfig $end
$var wire 1 !" empty $end
$var wire 1 "" flit_type [2] $end
$var wire 1 #" flit_type [1] $end
$var wire 1 $" flit_type [0] $end
$var wire 1 %" dst_addr [3] $end
$var wire 1 &" dst_addr [2] $end
$var wire 1 '" dst_addr [1] $end
$var wire 1 (" dst_addr [0] $end
$var wire 1 )" grant_N $end
$var wire 1 *" grant_E $end
$var wire 1 +" grant_W $end
$var wire 1 ," grant_S $end
$var wire 1 -" grant_L $end
$var wire 1 ." Req_N $end
$var wire 1 /" Req_E $end
$var wire 1 0" Req_W $end
$var wire 1 1" Req_S $end
$var wire 1 2" Req_L $end
$var wire 1 3" Cx [3] $end
$var wire 1 4" Cx [2] $end
$var wire 1 5" Cx [1] $end
$var wire 1 6" Cx [0] $end
$var wire 1 7" Rxy [7] $end
$var wire 1 8" Rxy [6] $end
$var wire 1 9" Rxy [5] $end
$var wire 1 :" Rxy [4] $end
$var wire 1 ;" Rxy [3] $end
$var wire 1 <" Rxy [2] $end
$var wire 1 =" Rxy [1] $end
$var wire 1 >" Rxy [0] $end
$var wire 1 ?" Rxy_in [7] $end
$var wire 1 @" Rxy_in [6] $end
$var wire 1 A" Rxy_in [5] $end
$var wire 1 B" Rxy_in [4] $end
$var wire 1 C" Rxy_in [3] $end
$var wire 1 D" Rxy_in [2] $end
$var wire 1 E" Rxy_in [1] $end
$var wire 1 F" Rxy_in [0] $end
$var wire 1 G" cur_addr [3] $end
$var wire 1 H" cur_addr [2] $end
$var wire 1 I" cur_addr [1] $end
$var wire 1 J" cur_addr [0] $end
$var wire 1 K" N1 $end
$var wire 1 L" E1 $end
$var wire 1 M" W1 $end
$var wire 1 N" S1 $end
$var wire 1 O" Req_N_in $end
$var wire 1 P" Req_E_in $end
$var wire 1 Q" Req_W_in $end
$var wire 1 R" Req_S_in $end
$var wire 1 S" Req_L_in $end
$var wire 1 T" Req_N_FF $end
$var wire 1 U" Req_E_FF $end
$var wire 1 V" Req_W_FF $end
$var wire 1 W" Req_S_FF $end
$var wire 1 X" Req_L_FF $end
$var wire 1 Y" grants $end
$var wire 1 Z" ReConf_FF_in $end
$var wire 1 [" ReConf_FF_out $end
$upscope $end

$scope module LBDR_S $end
$var wire 1 ! reset $end
$var wire 1 " clk $end
$var wire 1 # Rxy_reconf [7] $end
$var wire 1 $ Rxy_reconf [6] $end
$var wire 1 % Rxy_reconf [5] $end
$var wire 1 & Rxy_reconf [4] $end
$var wire 1 ' Rxy_reconf [3] $end
$var wire 1 ( Rxy_reconf [2] $end
$var wire 1 ) Rxy_reconf [1] $end
$var wire 1 * Rxy_reconf [0] $end
$var wire 1 + Reconfig $end
$var wire 1 \" empty $end
$var wire 1 ]" flit_type [2] $end
$var wire 1 ^" flit_type [1] $end
$var wire 1 _" flit_type [0] $end
$var wire 1 `" dst_addr [3] $end
$var wire 1 a" dst_addr [2] $end
$var wire 1 b" dst_addr [1] $end
$var wire 1 c" dst_addr [0] $end
$var wire 1 d" grant_N $end
$var wire 1 e" grant_E $end
$var wire 1 f" grant_W $end
$var wire 1 g" grant_S $end
$var wire 1 h" grant_L $end
$var wire 1 i" Req_N $end
$var wire 1 j" Req_E $end
$var wire 1 k" Req_W $end
$var wire 1 l" Req_S $end
$var wire 1 m" Req_L $end
$var wire 1 n" Cx [3] $end
$var wire 1 o" Cx [2] $end
$var wire 1 p" Cx [1] $end
$var wire 1 q" Cx [0] $end
$var wire 1 r" Rxy [7] $end
$var wire 1 s" Rxy [6] $end
$var wire 1 t" Rxy [5] $end
$var wire 1 u" Rxy [4] $end
$var wire 1 v" Rxy [3] $end
$var wire 1 w" Rxy [2] $end
$var wire 1 x" Rxy [1] $end
$var wire 1 y" Rxy [0] $end
$var wire 1 z" Rxy_in [7] $end
$var wire 1 {" Rxy_in [6] $end
$var wire 1 |" Rxy_in [5] $end
$var wire 1 }" Rxy_in [4] $end
$var wire 1 ~" Rxy_in [3] $end
$var wire 1 !# Rxy_in [2] $end
$var wire 1 "# Rxy_in [1] $end
$var wire 1 ## Rxy_in [0] $end
$var wire 1 $# cur_addr [3] $end
$var wire 1 %# cur_addr [2] $end
$var wire 1 &# cur_addr [1] $end
$var wire 1 '# cur_addr [0] $end
$var wire 1 (# N1 $end
$var wire 1 )# E1 $end
$var wire 1 *# W1 $end
$var wire 1 +# S1 $end
$var wire 1 ,# Req_N_in $end
$var wire 1 -# Req_E_in $end
$var wire 1 .# Req_W_in $end
$var wire 1 /# Req_S_in $end
$var wire 1 0# Req_L_in $end
$var wire 1 1# Req_N_FF $end
$var wire 1 2# Req_E_FF $end
$var wire 1 3# Req_W_FF $end
$var wire 1 4# Req_S_FF $end
$var wire 1 5# Req_L_FF $end
$var wire 1 6# grants $end
$var wire 1 7# ReConf_FF_in $end
$var wire 1 8# ReConf_FF_out $end
$upscope $end
$upscope $end
$upscope $end
$upscope $end
$enddefinitions $end
#0
$dumpvars
0L!
0)"
0d"
04
0p
0*"
0e"
05
0q
0N!
0f"
06
0r
0O!
0,"
07
0s
0P!
0-"
0h"
0t
0Q!
0."
0i"
09
0u
0R!
0/"
0j"
0:
0v
0S!
00"
0k"
0;
0w
0T!
01"
0l"
0<
0x
0U!
02"
0m"
0=
1g
1D!
1!"
1\"
1,
0o
13!
04!
15!
06!
07!
08!
09!
0:!
0;!
0<!
0=!
0>!
0?!
0@!
0A!
0B!
0C!
0M!
1n!
0o!
1p!
0q!
0r!
0s!
0t!
0u!
0v!
0w!
0x!
0y!
0z!
0{!
0|!
0}!
0~!
0+"
1K"
0L"
1M"
0N"
0O"
0P"
0Q"
0R"
0S"
0T"
0U"
0V"
0W"
0X"
0Y"
0Z"
0["
0g"
1(#
0)#
1*#
0+#
0,#
0-#
0.#
0/#
00#
01#
02#
03#
04#
05#
06#
07#
08#
08
1V
0W
1X
0Y
0Z
0[
0\
0]
0^
0_
0`
0a
0b
0c
0d
0e
0f
0+
0!
0"
0h
0i
0j
0k
0l
0m
0n
0E!
0F!
0G!
0H!
0I!
0J!
0K!
0""
0#"
0$"
0%"
0&"
0'"
0("
0]"
0^"
0_"
0`"
0a"
0b"
0c"
0-
0.
0/
00
01
02
03
0/!
10!
01!
12!
0j!
1k!
0l!
1m!
0G"
1H"
0I"
1J"
0$#
1%#
0&#
1'#
0R
1S
0T
1U
0#
1$
1%
1&
1'
1(
0)
1*
1>
1?
1@
1A
0B
1C
1D
1E
1F
1G
0H
1I
0J
1K
1L
1M
1N
1O
0P
1Q
1y
1z
1{
1|
0}
1~
1!!
1"!
1#!
1$!
0%!
1&!
0'!
1(!
1)!
1*!
1+!
1,!
0-!
1.!
1V!
1W!
1X!
1Y!
0Z!
1[!
1\!
1]!
1^!
1_!
0`!
1a!
0b!
1c!
1d!
1e!
1f!
1g!
0h!
1i!
13"
14"
15"
16"
07"
18"
19"
1:"
1;"
1<"
0="
1>"
0?"
1@"
1A"
1B"
1C"
1D"
0E"
1F"
1n"
1o"
1p"
1q"
0r"
1s"
1t"
1u"
1v"
1w"
0x"
1y"
0z"
1{"
1|"
1}"
1~"
1!#
0"#
1##
$end
#500
1"
#1000
1!
0"
#1500
1"
#2000
0"
#2500
1"
#3000
0"
#3500
1"
#4000
0"
#4500
1"
#5000
0"
#5500
1"
#6000
0"
#6500
1"
#7000
0"
#7500
1"
#8000
0"
#8500
1"
#9000
0"
#9500
1"
#10000
0"
#10500
1"
#11000
0"
#11500
1"
#12000
0"
#12500
1"
#13000
0"
#13500
1"
#14000
0"
#14500
1"
#15000
0"
#15500
1"
#16000
0"
#16500
1"
#17000
0"
#17500
1"
#18000
0"
#18500
1"
#19000
0"
#19500
1"
#20000
0"
#20500
1"
#21000
0"
#21500
1"
#22000
0"
#22500
1"
#23000
0"
#23500
1"
#24000
0"
#24500
1"
#25000
0"
#25500
1"
#26000
0"
#26500
1"
#27000
0"
#27500
1"
#28000
0"
#28500
1"
#29000
0"
#29500
1"
#30000
0"
#30500
1"
#31000
0"
#31500
1"
#32000
0"
#32500
1"
#33000
0"
#33500
1"
#34000
0"
#34500
1"
#35000
0"
#35500
1"
#36000
0"
#36500
1"
#37000
0"
#37500
1"
#38000
0"
#38500
1"
#39000
0"
#39500
1"
#40000
0"
#40500
1"
12
10
1/
0X
1W
1Y
0V
0,
1]
1[
#41000
0"
#41500
1"
1b
1`
1<
1:
#42000
0"
#42500
1"
15
1d
#43000
0"
#43500
1"
02
00
0/
1.
1X
0W
0Y
1V
#44000
0"
#44500
1"
#45000
0"
#45500
1"
05
0d
#46000
0"
#46500
1"
#47000
0"
#47500
1"
15
1d
#48000
0"
#48500
1"
#49000
0"
#49500
1"
#50000
0"
#50500
1"
05
0d
#51000
0"
#51500
1"
#52000
0"
#52500
1"
15
1d
#53000
0"
#53500
1"
0.
1-
0]
0[
#54000
0"
#54500
1"
0b
0`
1.
0-
0<
0:
1,
05
0d
#55000
0"
#55500
1"
#56000
0"
#56500
1"
#57000
0"
#57500
1"
#58000
0"
#58500
1"
#59000
0"
#59500
1"
#60000
0"
#60500
1"
#61000
0"
#61500
1"
#62000
0"
#62500
1"
#63000
0"
#63500
1"
#64000
0"
#64500
1"
#65000
0"
#65500
1"
#66000
0"
#66500
1"
#67000
0"
#67500
1"
#68000
0"
#68500
1"
#69000
0"
#69500
1"
#70000
0"
#70500
1"
12
11
10
1/
0.
0X
1W
0V
1Y
0,
1]
1[
#71000
0"
#71500
1"
1b
1`
1<
1:
#72000
0"
#72500
1"
15
1d
#73000
0"
#73500
1"
02
01
00
0/
1.
1'"
1%"
1$"
1X
0W
1V
0Y
0M"
1L"
1N"
0K"
0!"
1R"
1P"
#74000
0"
#74500
1"
1W"
1U"
11"
1/"
#75000
0"
#75500
1"
1c"
1a"
1_"
05
0*#
0(#
0\"
0d
10#
#76000
0"
#76500
1"
15#
1m"
#77000
0"
#77500
1"
1h"
16#
#78000
0"
#78500
1"
0c"
0a"
0_"
1^"
1*#
1(#
#79000
0"
#79500
1"
#80000
0"
#80500
1"
#81000
0"
#81500
1"
#82000
0"
#82500
1"
#83000
0"
#83500
1"
#84000
0"
#84500
1"
0^"
1]"
00#
#85000
0"
#85500
1"
05#
0m"
1^"
0]"
1\"
0h"
06#
