results/Journal_paper_2017/Power_Results/FT/R5_parity_LBDR_vcd.vcd
$date
	Wed Jun 28 13:36:56 2017
$end
$version
	QuestaSim Version 10.4c_1
$end
$timescale
	1ps
$end

$scope module tb_network_4x4 $end

$scope module NoC $end

$scope module R_5 $end

$scope module parity_LBDR_L $end
$var wire 1 ! RX [31] $end
$var wire 1 " RX [30] $end
$var wire 1 # RX [29] $end
$var wire 1 $ RX [28] $end
$var wire 1 % RX [27] $end
$var wire 1 & RX [26] $end
$var wire 1 ' RX [25] $end
$var wire 1 ( RX [24] $end
$var wire 1 ) RX [23] $end
$var wire 1 * RX [22] $end
$var wire 1 + RX [21] $end
$var wire 1 , RX [20] $end
$var wire 1 - RX [19] $end
$var wire 1 . RX [18] $end
$var wire 1 / RX [17] $end
$var wire 1 0 RX [16] $end
$var wire 1 1 RX [15] $end
$var wire 1 2 RX [14] $end
$var wire 1 3 RX [13] $end
$var wire 1 4 RX [12] $end
$var wire 1 5 RX [11] $end
$var wire 1 6 RX [10] $end
$var wire 1 7 RX [9] $end
$var wire 1 8 RX [8] $end
$var wire 1 9 RX [7] $end
$var wire 1 : RX [6] $end
$var wire 1 ; RX [5] $end
$var wire 1 < RX [4] $end
$var wire 1 = RX [3] $end
$var wire 1 > RX [2] $end
$var wire 1 ? RX [1] $end
$var wire 1 @ RX [0] $end
$var wire 1 A empty $end
$var wire 1 B faulty $end
$var wire 1 C xor_all $end
$upscope $end

$scope module parity_LBDR_N $end
$var wire 1 D RX [31] $end
$var wire 1 E RX [30] $end
$var wire 1 F RX [29] $end
$var wire 1 G RX [28] $end
$var wire 1 H RX [27] $end
$var wire 1 I RX [26] $end
$var wire 1 J RX [25] $end
$var wire 1 K RX [24] $end
$var wire 1 L RX [23] $end
$var wire 1 M RX [22] $end
$var wire 1 N RX [21] $end
$var wire 1 O RX [20] $end
$var wire 1 P RX [19] $end
$var wire 1 Q RX [18] $end
$var wire 1 R RX [17] $end
$var wire 1 S RX [16] $end
$var wire 1 T RX [15] $end
$var wire 1 U RX [14] $end
$var wire 1 V RX [13] $end
$var wire 1 W RX [12] $end
$var wire 1 X RX [11] $end
$var wire 1 Y RX [10] $end
$var wire 1 Z RX [9] $end
$var wire 1 [ RX [8] $end
$var wire 1 \ RX [7] $end
$var wire 1 ] RX [6] $end
$var wire 1 ^ RX [5] $end
$var wire 1 _ RX [4] $end
$var wire 1 ` RX [3] $end
$var wire 1 a RX [2] $end
$var wire 1 b RX [1] $end
$var wire 1 c RX [0] $end
$var wire 1 d empty $end
$var wire 1 e faulty $end
$var wire 1 f xor_all $end
$upscope $end

$scope module parity_LBDR_E $end
$var wire 1 g RX [31] $end
$var wire 1 h RX [30] $end
$var wire 1 i RX [29] $end
$var wire 1 j RX [28] $end
$var wire 1 k RX [27] $end
$var wire 1 l RX [26] $end
$var wire 1 m RX [25] $end
$var wire 1 n RX [24] $end
$var wire 1 o RX [23] $end
$var wire 1 p RX [22] $end
$var wire 1 q RX [21] $end
$var wire 1 r RX [20] $end
$var wire 1 s RX [19] $end
$var wire 1 t RX [18] $end
$var wire 1 u RX [17] $end
$var wire 1 v RX [16] $end
$var wire 1 w RX [15] $end
$var wire 1 x RX [14] $end
$var wire 1 y RX [13] $end
$var wire 1 z RX [12] $end
$var wire 1 { RX [11] $end
$var wire 1 | RX [10] $end
$var wire 1 } RX [9] $end
$var wire 1 ~ RX [8] $end
$var wire 1 !! RX [7] $end
$var wire 1 "! RX [6] $end
$var wire 1 #! RX [5] $end
$var wire 1 $! RX [4] $end
$var wire 1 %! RX [3] $end
$var wire 1 &! RX [2] $end
$var wire 1 '! RX [1] $end
$var wire 1 (! RX [0] $end
$var wire 1 )! empty $end
$var wire 1 *! faulty $end
$var wire 1 +! xor_all $end
$upscope $end

$scope module parity_LBDR_W $end
$var wire 1 ,! RX [31] $end
$var wire 1 -! RX [30] $end
$var wire 1 .! RX [29] $end
$var wire 1 /! RX [28] $end
$var wire 1 0! RX [27] $end
$var wire 1 1! RX [26] $end
$var wire 1 2! RX [25] $end
$var wire 1 3! RX [24] $end
$var wire 1 4! RX [23] $end
$var wire 1 5! RX [22] $end
$var wire 1 6! RX [21] $end
$var wire 1 7! RX [20] $end
$var wire 1 8! RX [19] $end
$var wire 1 9! RX [18] $end
$var wire 1 :! RX [17] $end
$var wire 1 ;! RX [16] $end
$var wire 1 <! RX [15] $end
$var wire 1 =! RX [14] $end
$var wire 1 >! RX [13] $end
$var wire 1 ?! RX [12] $end
$var wire 1 @! RX [11] $end
$var wire 1 A! RX [10] $end
$var wire 1 B! RX [9] $end
$var wire 1 C! RX [8] $end
$var wire 1 D! RX [7] $end
$var wire 1 E! RX [6] $end
$var wire 1 F! RX [5] $end
$var wire 1 G! RX [4] $end
$var wire 1 H! RX [3] $end
$var wire 1 I! RX [2] $end
$var wire 1 J! RX [1] $end
$var wire 1 K! RX [0] $end
$var wire 1 L! empty $end
$var wire 1 M! faulty $end
$var wire 1 N! xor_all $end
$upscope $end

$scope module parity_LBDR_S $end
$var wire 1 O! RX [31] $end
$var wire 1 P! RX [30] $end
$var wire 1 Q! RX [29] $end
$var wire 1 R! RX [28] $end
$var wire 1 S! RX [27] $end
$var wire 1 T! RX [26] $end
$var wire 1 U! RX [25] $end
$var wire 1 V! RX [24] $end
$var wire 1 W! RX [23] $end
$var wire 1 X! RX [22] $end
$var wire 1 Y! RX [21] $end
$var wire 1 Z! RX [20] $end
$var wire 1 [! RX [19] $end
$var wire 1 \! RX [18] $end
$var wire 1 ]! RX [17] $end
$var wire 1 ^! RX [16] $end
$var wire 1 _! RX [15] $end
$var wire 1 `! RX [14] $end
$var wire 1 a! RX [13] $end
$var wire 1 b! RX [12] $end
$var wire 1 c! RX [11] $end
$var wire 1 d! RX [10] $end
$var wire 1 e! RX [9] $end
$var wire 1 f! RX [8] $end
$var wire 1 g! RX [7] $end
$var wire 1 h! RX [6] $end
$var wire 1 i! RX [5] $end
$var wire 1 j! RX [4] $end
$var wire 1 k! RX [3] $end
$var wire 1 l! RX [2] $end
$var wire 1 m! RX [1] $end
$var wire 1 n! RX [0] $end
$var wire 1 o! empty $end
$var wire 1 p! faulty $end
$var wire 1 q! xor_all $end
$upscope $end
$upscope $end
$upscope $end
$upscope $end
$enddefinitions $end
#0
$dumpvars
1d
1)!
1L!
1o!
1A
0e
0*!
0M!
0p!
0B
0f
0+!
0N!
0q!
0C
0D
0E
0F
0G
0H
0I
0J
0K
0L
0M
0N
0O
0P
0Q
0R
0S
0T
0U
0V
0W
0X
0Y
0Z
0[
0\
0]
0^
0_
0`
0a
0b
0c
0g
0h
0i
0j
0k
0l
0m
0n
0o
0p
0q
0r
0s
0t
0u
0v
0w
0x
0y
0z
0{
0|
0}
0~
0!!
0"!
0#!
0$!
0%!
0&!
0'!
0(!
0,!
0-!
0.!
0/!
00!
01!
02!
03!
04!
05!
06!
07!
08!
09!
0:!
0;!
0<!
0=!
0>!
0?!
0@!
0A!
0B!
0C!
0D!
0E!
0F!
0G!
0H!
0I!
0J!
0K!
0O!
0P!
0Q!
0R!
0S!
0T!
0U!
0V!
0W!
0X!
0Y!
0Z!
0[!
0\!
0]!
0^!
0_!
0`!
0a!
0b!
0c!
0d!
0e!
0f!
0g!
0h!
0i!
0j!
0k!
0l!
0m!
0n!
0!
0"
0#
0$
0%
0&
0'
0(
0)
0*
0+
0,
0-
0.
0/
00
01
02
03
04
05
06
07
08
09
0:
0;
0<
0=
0>
0?
0@
$end
#57500
17
15
13
12
11
10
1,
1#
0A
#60500
1@
1?
1>
1=
1<
1;
1:
19
18
16
14
1/
1.
1-
1+
1*
1)
1(
1'
1&
1%
1$
0#
1"
1K!
1@!
1>!
1=!
1<!
1;!
17!
1.!
1C
1B
1M!
0L!
0B
1N!
0M!
#61500
0@
0<
0;
0:
09
07
05
04
03
02
01
00
0/
0.
0-
0,
0+
0*
0)
0(
0'
0&
0%
0$
0C
1B
0B
#116500
1m!
1e!
1d!
1b!
1a!
1_!
1Z!
1Q!
0o!
#119500
1k!
1h!
0e!
0d!
0b!
0a!
0_!
0Z!
0Q!
1P!
#122500
1'!
1}
1|
1{
1y
1w
1r
1i
0)!
#134500
0P!
1O!
#137500
0k!
0h!
1d!
1c!
1b!
1a!
1_!
1Z!
1Q!
0O!
#140500
1%!
1"!
0}
0|
0{
0y
0w
0r
0i
1h
#158500
0h
1g
#161500
1h
0g
1)!
#164500
1k!
1h!
0d!
0c!
0b!
0a!
0_!
0Z!
0Q!
1P!
#182500
0P!
1O!
#185500
1n!
0k!
0h!
1d!
1b!
1a!
1_!
1Z!
1Q!
0O!
1q!
1p!
0p!
#188500
0n!
1k!
1h!
0d!
0b!
0a!
0_!
0Z!
0Q!
1P!
0q!
1p!
0p!
#190500
1c
1b
1Z
1Y
1V
1T
1O
1F
1e
0d
1f
0e
#206500
0P!
1O!
#209500
0k!
0h!
1e!
1c!
1b!
1a!
1_!
1Z!
1Q!
0O!
#212500
0c
1`
1]
0Z
0Y
0V
0T
0O
0F
1E
0f
1e
0e
#230500
0E
1D
#233500
1E
0D
1d
#236500
1k!
1h!
0e!
0c!
0b!
0a!
0_!
0Z!
0Q!
1P!
#254500
0P!
1O!
#256500
1&!
0%!
0"!
1}
1|
1{
1y
1r
1i
0h
0)!
#257500
1n!
0k!
0h!
1e!
1b!
1a!
1_!
1Z!
1Q!
0O!
1q!
1p!
0p!
#259500
1(!
0'!
0&!
1%!
1$!
1!!
1~
0}
0|
0{
0y
0r
0i
1h
1+!
1*!
0*!
#260500
0n!
1k!
1h!
0e!
0b!
0a!
0_!
0Z!
0Q!
1P!
0q!
1p!
0p!
#270500
0h
1g
#273500
1'!
0%!
0$!
0!!
0~
1|
1{
1y
1w
1r
1i
0g
#276500
0`
0]
1Y
1V
1T
1O
1F
0E
0d
#278500
0P!
1O!
#281500
1l!
0k!
0h!
1e!
1d!
1b!
1a!
1Z!
1Q!
0O!
#284500
1n!
0m!
0l!
1k!
1j!
1g!
1f!
0e!
0d!
0b!
0a!
0Z!
0Q!
1P!
1`
1]
0Y
0V
0T
0O
0F
1E
1q!
1p!
0p!
#294500
0P!
1O!
#297500
0n!
1m!
0k!
0j!
0g!
0f!
1b!
1a!
1_!
1Z!
1Q!
0O!
0q!
1p!
0p!
#302500
0E
1D
#305500
1E
0D
1d
#308500
0(!
1%!
1"!
0|
0{
0y
0w
0r
0i
1h
0+!
1*!
0*!
#314500
0`
0]
1Z
1V
1T
1O
1F
0E
0d
#315500
1@
0?
0>
0=
08
06
0"
1!
1C
1B
0B
#318500
0@
1?
17
15
13
1,
1#
0!
0C
1B
0B
#321500
0?
1>
1:
18
07
05
03
0,
0#
1"
1J!
1I!
1H!
1G!
1F!
1E!
1D!
1C!
1B!
1A!
1?!
1:!
19!
18!
16!
15!
14!
13!
12!
11!
10!
1/!
0.!
1-!
#322500
1?
1=
0:
16
1A
#324500
0K!
0G!
0F!
0E!
0D!
0B!
0@!
0?!
0>!
0=!
0<!
0;!
0:!
09!
08!
07!
06!
05!
04!
03!
02!
01!
00!
0/!
0N!
1M!
0M!
#326500
0h
1g
#329500
1h
0g
1)!
#332500
1k!
1h!
0b!
0a!
0_!
0Z!
0Q!
1P!
#350500
0P!
1O!
#353500
1n!
0k!
0h!
1c!
1b!
1a!
1_!
1Z!
1Q!
0O!
1q!
1p!
0p!
#356500
1`
1]
0Z
0V
0T
0O
0F
1E
#363500
1K!
0J!
0I!
0H!
0C!
0A!
0-!
1,!
1N!
1M!
0M!
#366500
0K!
1J!
1@!
1>!
1<!
17!
1.!
0,!
0N!
1M!
0M!
#374500
0E
1D
#377500
1c
0`
0]
1V
1T
1O
1F
0D
1f
1e
0e
#380500
1H!
1E!
0@!
0>!
0<!
07!
0.!
1-!
#398500
0-!
1,!
#401500
1K!
0J!
1I!
0H!
0E!
1@!
1=!
17!
1.!
0,!
1N!
1M!
0M!
#404500
0n!
1k!
1h!
0c!
0b!
0a!
0_!
0Z!
0Q!
1P!
0K!
1J!
0I!
1G!
1F!
1C!
1A!
0@!
0=!
07!
0.!
1-!
0q!
1p!
0N!
1M!
0p!
0M!
#421500
1(!
1&!
0%!
0"!
1|
1{
1y
1r
1i
0h
1*!
0)!
1+!
0*!
#422500
0P!
1O!
#425500
1n!
1l!
0k!
0h!
1e!
1b!
1a!
1Z!
1Q!
0O!
1q!
1p!
0p!
#428500
0c
1`
1]
0V
0T
0O
0F
1E
0f
1e
0e
#446500
0E
1D
#449500
1E
0D
1d
#462500
0?
0=
1:
06
0A
#463500
1@
0>
0:
08
0"
1!
1A
1C
1B
0C
0B
1B
#464500
0@
1>
1:
18
1"
0!
0B
0A
#465500
1?
0>
0:
08
17
15
13
1,
1#
0"
1A
#466500
0?
1>
1:
18
07
05
03
0,
0#
1"
0A
#467500
1A
#468500
0A
#469500
1A
#470500
0A
#471500
1A
#472500
0"
1!
0A
#473500
1"
0!
1A
#475500
0'!
0&!
1%!
1$!
1!!
1~
0|
0{
0y
0r
0i
1h
#489500
0-!
1,!
#492500
1-!
0,!
1L!
#498500
1I!
0G!
0F!
0C!
0A!
1@!
1>!
17!
1.!
0-!
0L!
#503500
1@
0:
08
17
15
12
10
1,
1#
0"
1B
0A
1C
0B
#506500
1?
0>
1=
1;
19
07
05
02
00
0,
0#
1"
#514500
0h
1g
#517500
1h
0g
1)!
0+!
1*!
#520500
1K!
0J!
0I!
1H!
1G!
1D!
1C!
0@!
0>!
07!
0.!
1-!
1N!
1M!
0M!
#538500
0-!
1,!
#541500
1-!
0,!
1L!
0N!
1M!
#542500
0K!
0G!
0D!
0C!
1@!
1>!
1=!
17!
1.!
0-!
0M!
0L!
#544500
0m!
0l!
1k!
1j!
1g!
1f!
0e!
0b!
0a!
0Z!
0Q!
1P!
#550500
1'!
1&!
0$!
0!!
0~
1}
1|
1{
1w
1r
1i
0h
0)!
1+!
0*!
#553500
0'!
0&!
1$!
1#!
1"!
1~
0}
0{
0w
0r
0i
1h
#564500
0h
1g
#567500
1h
0g
1)!
0+!
1*!
#586500
0P!
1O!
#589500
1m!
1l!
0k!
0j!
0g!
0f!
1d!
1b!
1a!
1Z!
1Q!
0O!
#592500
0m!
0l!
1k!
1j!
1g!
1f!
0d!
0b!
0a!
0Z!
0Q!
1P!
#610500
0P!
1O!
#613500
0n!
1m!
1l!
0k!
0j!
0g!
0f!
1b!
1a!
1Z!
1Q!
0O!
0q!
1p!
0p!
#616500
1n!
0m!
0l!
1k!
1j!
1g!
1f!
0b!
0a!
0Z!
0Q!
1P!
1q!
1p!
0p!
#634500
0P!
1O!
#637500
0n!
1m!
1l!
0k!
0j!
0g!
0f!
1e!
1c!
1b!
1a!
1Z!
1Q!
0O!
0q!
1p!
0p!
#640500
1n!
0m!
0l!
1k!
1j!
1g!
1f!
0e!
0c!
0b!
0a!
0Z!
0Q!
1P!
1q!
1p!
0p!
#658500
0P!
1O!
#661500
0n!
1m!
0k!
0j!
0g!
0f!
1e!
1d!
1c!
1b!
1a!
1Z!
1Q!
0O!
0q!
1p!
0p!
#664500
0m!
1l!
1h!
1f!
0e!
0d!
0c!
0b!
0a!
0Z!
0Q!
1P!
#682500
0P!
1O!
#685500
1n!
1m!
0h!
0f!
1c!
1b!
1a!
1Z!
1Q!
0O!
1q!
1p!
0p!
#688500
0m!
0l!
1k!
1j!
1g!
1f!
0c!
0b!
0a!
0Z!
0Q!
1P!
#698500
0"
1!
#701500
0@
1>
0=
0;
09
17
15
13
12
1,
1#
0!
0C
1B
0B
#704500
1K!
1J!
1I!
1G!
1C!
1A!
0@!
0>!
0=!
07!
0.!
1-!
1N!
1M!
0M!
#706500
0P!
1O!
#709500
0n!
1m!
1l!
0k!
0j!
0g!
0f!
1d!
1c!
1b!
1a!
1Z!
1Q!
0O!
0q!
1p!
0p!
#712500
1n!
0m!
0l!
1k!
1j!
1g!
1f!
0d!
0c!
0b!
0a!
0Z!
0Q!
1P!
1q!
1p!
0p!
#730500
1o!
0q!
1p!
#732500
0-!
1,!
#735500
0K!
0I!
0G!
0C!
0A!
1@!
1=!
17!
1.!
0,!
0N!
1M!
0M!
#736500
0P!
1O!
0o!
1q!
0p!
#737500
1P!
0O!
1o!
0q!
1p!
#738500
1=
1:
18
07
05
03
02
0,
0#
1"
#749500
0(!
1'!
1&!
0$!
0#!
0"!
0~
1{
1w
1r
1i
0h
0*!
0)!
#752500
1(!
0'!
0&!
1$!
1#!
1"!
1~
0{
0w
0r
0i
1h
1+!
1*!
0*!
#763500
0h
1g
#766500
1h
0g
1)!
0+!
1*!
#780500
0"
1!
#783500
1"
0!
1A
#786500
1K!
0J!
1I!
1G!
1C!
1B!
1A!
0@!
0=!
07!
0.!
1-!
1N!
1M!
0M!
#805500
1@
0?
0>
0:
08
17
15
12
10
1,
1#
0"
1B
0A
1C
0B
#822500
0-!
1,!
#825500
1-!
0,!
1L!
0N!
1M!
#828500
1?
0=
18
07
05
02
00
0,
0#
1"
#865500
0K!
0G!
0C!
0B!
0A!
1@!
1=!
17!
1.!
0-!
0M!
0L!
#903500
1m!
1l!
0k!
0g!
0f!
1e!
1d!
1b!
1a!
1Z!
1Q!
0P!
0o!
1q!
0p!
#906500
0m!
0l!
1k!
1i!
1f!
0b!
0a!
0Z!
0Q!
1P!
#917500
0P!
1O!
1'!
1&!
0%!
0#!
0"!
0~
1}
1{
1y
1r
1i
0h
0)!
1+!
0*!
#920500
1P!
0O!
1o!
0q!
1p!
#923500
0'!
0&!
1%!
1#!
1~
0{
0y
0r
0i
1h
#928500
0"
1!
#929500
1=
08
17
15
12
11
10
1,
1#
0!
#931500
1J!
0H!
1G!
1E!
1B!
0@!
0=!
07!
0.!
1-!
#941500
0h
1g
#944500
1h
0g
1)!
0+!
1*!
#966500
0-!
1,!
#967500
1H!
0G!
0E!
0B!
1@!
1=!
1;!
17!
1.!
0,!
#969500
0@
0?
0=
1;
1:
19
07
05
02
01
00
0,
0#
1"
0C
1B
0B
#989500
0n!
0i!
0f!
1b!
1a!
1Z!
1Q!
0P!
0p!
0o!
#992500
1f!
0b!
0a!
0Z!
0Q!
1P!
#1003500
0P!
1O!
0(!
0#!
0~
1{
1y
1r
1i
0h
0*!
0)!
#1006500
1P!
0O!
1o!
#1009500
1~
0{
0y
0r
0i
1h
#1015500
0"
1!
#1018500
1"
0!
1A
#1021500
0J!
1F!
1E!
1C!
1B!
1A!
0@!
0=!
0;!
07!
0.!
1-!
#1027500
0h
1g
#1030500
1@
1>
1=
0;
0:
09
17
15
11
1,
1#
0"
1h
0g
1B
0A
1)!
1C
0B
#1033500
0@
1?
0>
0=
1<
05
01
0,
0#
1"
0C
1B
0B
#1050500
0"
1!
#1053500
1"
0!
1A
#1071500
1'!
0~
1{
1y
1w
1r
1i
0h
0)!
#1073500
1m!
0f!
1b!
1a!
1_!
1Z!
1Q!
0P!
0o!
#1074500
0'!
0$!
1#!
1~
0}
0|
0{
0y
0w
0r
0i
1h
#1090500
0h
1g
#1093500
1h
0g
1)!
#1096500
0m!
0j!
1i!
1f!
0e!
0d!
0b!
0a!
0_!
0Z!
0Q!
1P!
#1099500
1(!
1&!
1$!
0#!
0~
1}
1|
1{
1y
1w
1v
1r
1i
0h
1*!
0)!
1+!
0*!
#1102500
1'!
0&!
0$!
0}
0|
0{
0y
0w
0v
0r
0i
1h
#1112500
0h
1g
#1113500
1h
0g
1)!
0+!
1*!
#1114500
0P!
1O!
#1117500
1P!
0O!
1o!
#1159500
1@
1>
1=
0<
15
12
10
1,
1#
0"
0-!
1,!
1B
0A
1C
0B
#1160500
0k!
1j!
0i!
0f!
1e!
1d!
1c!
1b!
1a!
1Z!
1Q!
0P!
1-!
0,!
0o!
1L!
#1162500
0@
0?
1;
1:
18
16
05
02
00
0,
0#
1"
0C
1B
0B
#1163500
1l!
1k!
0j!
1f!
0c!
0b!
0a!
0Z!
0Q!
1P!
#1174500
0P!
1O!
#1177500
1P!
0O!
1o!
#1217500
1K!
0I!
0H!
1G!
0F!
0E!
0C!
0B!
0A!
1@!
1>!
17!
1.!
0-!
1M!
0L!
1N!
0M!
#1220500
0K!
1I!
1H!
0G!
1C!
1B!
1A!
0@!
0>!
07!
0.!
1-!
0N!
1M!
0M!
#1231500
0-!
1,!
#1234500
1-!
0,!
1L!
#1279500
0(!
0'!
0%!
1#!
1}
1|
1{
1w
1v
1r
1i
0h
0*!
0)!
#1282500
1(!
1'!
1%!
0#!
0}
0|
0{
0w
0v
0r
0i
1h
1+!
1*!
0*!
#1283500
1J!
0I!
0H!
1G!
0C!
0B!
0A!
1@!
1=!
1<!
1;!
17!
1.!
0-!
0L!
#1308500
0h
1g
#1311500
0(!
0%!
1#!
1}
1|
1{
1w
1r
1i
0g
0+!
1*!
0*!
#1314500
0'!
1&!
1%!
1$!
0#!
0{
0w
0r
0i
1h
#1320500
1(!
1'!
0&!
0$!
0}
0|
0h
1g
1)!
1+!
1*!
0+!
0*!
1*!
#1325500
0(!
0'!
1&!
1$!
1}
1|
1h
0g
0*!
0)!
#1339500
0h
1g
#1342500
1'!
0%!
0}
1{
1y
1r
1i
0g
#1345500
1(!
0'!
0&!
1%!
1#!
1~
1}
0{
0y
0r
0i
1h
1+!
1*!
0*!
#1348500
0"
1!
#1351500
0>
0=
1<
0;
0:
08
06
15
13
1,
1#
0!
#1354500
1K!
1I!
0G!
1F!
1C!
1B!
1A!
0@!
0=!
0<!
0;!
07!
0.!
1-!
1N!
1M!
0M!
#1366500
0h
1g
#1369500
1h
0g
1)!
0+!
1*!
#1372500
1>
1=
0<
18
16
05
03
0,
0#
1"
#1374500
1n!
1m!
0k!
1j!
0f!
0d!
1c!
1b!
1a!
1Z!
1Q!
0P!
1p!
0o!
1q!
0p!
#1390500
0"
1!
#1393500
1"
0!
1A
#1396500
0m!
0l!
1k!
1i!
1f!
1d!
0c!
0b!
0a!
0Z!
0Q!
1P!
#1414500
0P!
1O!
#1417500
0n!
1m!
1l!
0k!
0i!
0f!
0d!
1b!
1a!
1Z!
1Q!
0O!
0q!
1p!
0p!
#1420500
1n!
0m!
0l!
1k!
1i!
1f!
1d!
0b!
0a!
0Z!
0Q!
1P!
1q!
1p!
0p!
#1428500
0#!
0~
0}
1{
1y
1r
1i
0h
0)!
1+!
0*!
#1433500
1@
1?
0>
0=
1<
08
06
15
12
11
10
1,
1#
0"
1B
0A
1C
0B
#1438500
0P!
1O!
#1441500
1l!
0k!
0j!
0f!
1b!
1a!
1_!
1Z!
1Q!
0O!
#1444500
1m!
0l!
1k!
1j!
0i!
1g!
1f!
0d!
0b!
0a!
0_!
0Z!
0Q!
1P!
0(!
1~
1}
0{
0y
0r
0i
1h
0+!
1*!
0*!
#1459500
0P!
1O!
#1462500
0n!
1l!
0k!
0g!
0f!
0e!
1c!
1b!
1a!
1Z!
1Q!
0O!
0h
1g
0q!
1p!
0p!
#1465500
1(!
1&!
0%!
0$!
1#!
0~
1{
1y
1w
1r
1i
0g
1+!
1*!
0*!
#1468500
1n!
0m!
0l!
1k!
1i!
1f!
1e!
1d!
0c!
0b!
0a!
0Z!
0Q!
1P!
1'!
0&!
1%!
1$!
0#!
1!!
1~
0|
0{
0y
0w
0r
0i
1h
1q!
1p!
0p!
#1483500
0h
1g
#1486500
0P!
1O!
1&!
0%!
0$!
1#!
0!!
0~
1|
1{
1v
1r
1i
0g
#1489500
0n!
0i!
0f!
0d!
1c!
1b!
1a!
1Z!
1Q!
0O!
0(!
0&!
0#!
1"!
1~
0}
0|
0{
0v
0r
0i
1h
0q!
1p!
0+!
1*!
0p!
0*!
#1492500
1f!
1d!
0c!
0b!
0a!
0Z!
0Q!
1P!
#1499500
0h
1g
#1500500
1(!
1%!
1$!
0"!
0~
1|
1{
1y
1w
1r
1i
0g
1+!
1*!
0*!
#1503500
0(!
0'!
0$!
1#!
1~
0|
0{
0y
0w
0r
0i
1h
0+!
1*!
0*!
#1510500
0P!
1O!
#1513500
1n!
0f!
0d!
1b!
1a!
1Z!
1Q!
0O!
1q!
1p!
0p!
#1516500
0n!
1f!
1d!
0b!
0a!
0Z!
0Q!
1P!
0q!
1p!
0p!
#1518500
0h
1g
#1521500
1h
0g
1)!
#1524500
1&!
1$!
0#!
0~
1|
1{
1y
1w
1v
1r
1i
0h
0)!
#1527500
1(!
1'!
0&!
0$!
0|
0{
0y
0w
0v
0r
0i
1h
1+!
1*!
0*!
#1534500
0P!
1O!
#1537500
1n!
1m!
1l!
0k!
0f!
0e!
0d!
1b!
1a!
1Z!
1Q!
0O!
0h
1g
1q!
1p!
0p!
#1538500
1h
0g
1)!
0+!
1*!
#1540500
0m!
0l!
1k!
1i!
1f!
1e!
1d!
0b!
0a!
0Z!
0Q!
1P!
#1543500
0-!
1,!
#1546500
0K!
0J!
1G!
0F!
0C!
0B!
0A!
1@!
1>!
1=!
1<!
17!
1.!
0,!
0N!
1M!
0M!
#1549500
1>
0<
1;
18
16
05
02
01
00
0,
0#
1"
#1558500
0P!
1O!
#1561500
0i!
0f!
0e!
0d!
1c!
1b!
1a!
1Z!
1Q!
0O!
#1564500
0n!
1f!
1e!
1d!
0c!
0b!
0a!
0Z!
0Q!
1P!
0q!
1p!
0p!
#1582500
0P!
1O!
#1585500
1n!
1m!
0f!
0d!
1b!
1a!
1_!
1Z!
1Q!
0O!
1q!
1p!
0p!
#1588500
0"
1!
0n!
0m!
0j!
1i!
1f!
0e!
0b!
0a!
0_!
0Z!
0Q!
1P!
0q!
1p!
0p!
#1589500
1"
0!
1A
0C
1B
#1591500
1D!
0@!
0>!
0=!
0<!
07!
0.!
1-!
#1602500
0-!
1,!
#1603500
1K!
1J!
0D!
1@!
1=!
1<!
1;!
17!
1.!
0,!
1N!
1M!
0M!
#1604500
0P!
1O!
#1606500
0K!
0J!
0I!
1F!
1D!
0@!
0=!
0<!
0;!
07!
0.!
1-!
0N!
1M!
0M!
#1607500
1m!
1l!
0k!
1j!
0i!
0f!
1d!
1b!
1a!
1Z!
1Q!
0O!
#1610500
1n!
0m!
0l!
1k!
1i!
1f!
1e!
0b!
0a!
0Z!
0Q!
1P!
1q!
1p!
0p!
#1621500
0P!
1O!
#1624500
0n!
0i!
0f!
0e!
0d!
1b!
1a!
1Z!
1Q!
0O!
0q!
1p!
0p!
#1627500
1f!
1e!
1d!
0b!
0a!
0Z!
0Q!
1P!
#1630500
0-!
1,!
#1633500
1-!
0,!
1L!
#1639500
0?
1<
0;
08
06
15
13
12
11
1,
1#
0"
0A
1C
0B
#1642500
0@
19
07
05
03
02
01
0,
0#
1"
0C
1B
0B
#1645500
0P!
1O!
#1648500
1m!
0f!
0d!
1c!
1b!
1a!
1_!
1Z!
1Q!
0O!
#1651500
0m!
0j!
1i!
1f!
0e!
0c!
0b!
0a!
0_!
0Z!
0Q!
1P!
#1659500
0"
1!
#1660500
1"
0!
1A
#1667500
0P!
1O!
#1670500
1n!
1m!
1j!
0i!
0f!
1c!
1b!
1a!
1_!
1Z!
1Q!
0O!
1q!
1p!
0p!
#1673500
0n!
0m!
0j!
1i!
1f!
0c!
0b!
0a!
0_!
0Z!
0Q!
1P!
0q!
1p!
0p!
#1690500
1H!
0F!
0D!
1@!
1=!
1<!
1;!
17!
1.!
0-!
0L!
#1691500
0P!
1O!
#1693500
1I!
0H!
1E!
1D!
1B!
0@!
0=!
0<!
0;!
07!
0.!
1-!
#1694500
1n!
1j!
0i!
0f!
1d!
1b!
1a!
1Z!
1Q!
0O!
1q!
1p!
0p!
#1697500
0n!
1f!
1e!
0b!
0a!
0Z!
0Q!
1P!
0q!
1p!
0p!
#1708500
0P!
1O!
#1711500
1m!
0f!
0e!
0d!
1b!
1a!
1_!
1Z!
1Q!
0O!
#1714500
1?
09
17
15
12
11
10
1,
1#
0"
0m!
0j!
1i!
1f!
0b!
0a!
0_!
0Z!
0Q!
1P!
0A
#1726500
0-!
1,!
#1729500
1-!
0,!
1L!
#1730500
0P!
1O!
#1732500
0?
0>
1;
19
07
05
02
01
00
0,
0#
1"
#1733500
1P!
0O!
1o!
#1738500
1>
0;
0"
1!
1A
#1745500
1n!
1m!
1j!
0i!
0f!
1d!
1b!
1a!
1_!
1Z!
1Q!
0P!
1p!
0o!
1q!
0p!
#1746500
0>
1;
1"
0!
0A
#1748500
0n!
0m!
0j!
1i!
1f!
0d!
0b!
0a!
0_!
0Z!
0Q!
1P!
0q!
1p!
0p!
#1752500
0'!
1&!
1#!
1}
1|
1{
1v
1r
1i
0h
0)!
1+!
0*!
#1755500
0(!
0%!
0#!
1"!
0|
0{
0v
0r
0i
1h
0+!
1*!
0*!
#1763500
0P!
1O!
#1765500
0h
1g
#1766500
1P!
0O!
1(!
0&!
1#!
0"!
0}
1|
1{
1w
1v
1r
1i
0g
1o!
1+!
1*!
0*!
#1769500
1'!
1%!
0#!
0|
0{
0w
0v
0r
0i
1h
#1771500
1A
#1779500
0A
#1780500
1A
#1781500
0"
1!
0A
#1782500
1"
0!
1A
#1786500
0h
1g
#1787500
0%!
1#!
1|
1{
1w
1r
1i
0g
#1790500
0(!
0'!
1&!
1%!
1$!
0#!
1}
0{
0w
0r
0i
1h
0+!
1*!
0*!
#1801500
0h
1g
#1804500
1h
0g
1)!
#1818500
1m!
0k!
0f!
1e!
1d!
1c!
1b!
1a!
1_!
1Z!
1Q!
0P!
0o!
#1821500
1n!
1k!
1j!
0i!
1g!
1f!
0d!
0c!
0b!
0a!
0_!
0Z!
0Q!
1P!
1q!
1p!
0p!
#1836500
0P!
1O!
#1839500
1P!
0O!
1o!
0q!
1p!
#1850500
1K!
1J!
0I!
1H!
0E!
0D!
0B!
1@!
1=!
17!
1.!
0-!
1M!
0L!
1N!
0M!
#1853500
1I!
1E!
1D!
1B!
1A!
0@!
0=!
07!
0.!
1-!
